{ "identifier": "8923d017-1670-4ff5-8223-7283ba901af8",
  "incident_id": "ec223a2f-e450-44dd-8aff-f06021e14a89",
  "type_id": "897a84c4-e048-4e15-b5f7-22f00b1e2d31",
  "name": "Test Party",
  "vehicle_registration": "Not Provided",
  "solicitor_name": null,
  "testimony_requested_at": null,
  "type": {"identifier": "897a84c4-e048-4e15-b5f7-22f00b1e2d31", "name": "witness", "label": "Witness"}}
